{
  "images" : [
    {
      "filename" : "Default-667h.png",
      "idiom" : "universal",
      "scale" : "1x"
    },
    {
      "filename" : "Default@2x~universal~anyany.png",
      "idiom" : "universal",
      "scale" : "2x"
    },
    {
      "filename" : "Default@3x~iphone~anycom.png",
      "idiom" : "universal",
      "scale" : "3x"
    }
  ],
  "info" : {
    "author" : "xcode",
    "version" : 1
  }
}
